<?xml version="1.0" encoding="utf-8"?>
<!-- Generator: Adobe Illustrator 17.0.0, SVG Export Plug-In . SVG Version: 6.00 Build 0)  -->
<!DOCTYPE svg PUBLIC "-//W3C//DTD SVG 1.1//EN" "http://www.w3.org/Graphics/SVG/1.1/DTD/svg11.dtd">
<svg version="1.1" id="Layer_1" xmlns="http://www.w3.org/2000/svg" xmlns:xlink="http://www.w3.org/1999/xlink" x="0px" y="0px"
	 width="129.293px" height="118.182px" viewBox="0 0 129.293 118.182" enable-background="new 0 0 129.293 118.182"
	 xml:space="preserve">
<g>
	<rect x="22.01" y="13.946" fill="#5F605F" width="40.73" height="40.73"/>
	<rect x="68.388" y="13.946" fill="#20B5B3" width="40.73" height="40.73"/>
	<rect x="22.01" y="59.714" fill="#005D8C" width="40.73" height="40.73"/>
	<rect x="68.388" y="59.714" fill="#F29E23" width="40.73" height="40.73"/>
</g>
</svg>
