<?xml version="1.0" encoding="utf-8"?>
<!-- Generator: Adobe Illustrator 17.0.0, SVG Export Plug-In . SVG Version: 6.00 Build 0)  -->
<!DOCTYPE svg PUBLIC "-//W3C//DTD SVG 1.1//EN" "http://www.w3.org/Graphics/SVG/1.1/DTD/svg11.dtd">
<svg version="1.1" id="Layer_1" xmlns="http://www.w3.org/2000/svg" xmlns:xlink="http://www.w3.org/1999/xlink" x="0px" y="0px"
	 width="42.52px" height="42.52px" viewBox="-7.087 -7.087 42.52 42.52" enable-background="new -7.087 -7.087 42.52 42.52"
	 xml:space="preserve">
<g>
	<polygon fill="#5F605F" points="-7.087,-7.087 -7.087,-0.667 -7.087,29.014 -7.087,35.433 35.433,35.433 35.433,-7.087 	"/>
	<g>
		<path fill="#FFFFFF" d="M7.714,9.25c0-0.041,0.021-0.074,0.062-0.097l4.151-1.794c0.034-0.012,0.068-0.009,0.101,0.008
			c0.031,0.018,0.048,0.048,0.048,0.089V8.51c0,0.041-0.023,0.074-0.069,0.097L9.211,9.724c0.462,0.187,0.927,0.373,1.394,0.554
			c0.465,0.182,0.933,0.366,1.402,0.554c0.046,0.024,0.069,0.056,0.069,0.097v1.047c0,0.041-0.016,0.071-0.048,0.091
			c-0.033,0.021-0.067,0.022-0.101,0.005l-4.151-1.794c-0.041-0.018-0.062-0.05-0.062-0.097L7.714,9.25L7.714,9.25z"/>
		<path fill="#FFFFFF" d="M12.937,12.423c-0.034,0-0.064-0.012-0.087-0.039c-0.023-0.026-0.03-0.058-0.018-0.091l1.424-6.173
			c0.012-0.046,0.043-0.071,0.096-0.071h1.029c0.035,0,0.064,0.012,0.089,0.036c0.023,0.023,0.028,0.053,0.018,0.089l-1.426,6.171
			c-0.011,0.053-0.044,0.079-0.097,0.079L12.937,12.423L12.937,12.423z"/>
		<path fill="#FFFFFF" d="M20.313,10.182c0,0.046-0.021,0.079-0.061,0.097l-4.15,1.794c-0.035,0.016-0.07,0.015-0.101-0.005
			c-0.033-0.02-0.049-0.051-0.049-0.092V10.93c0-0.041,0.023-0.074,0.071-0.097l2.795-1.126c-0.462-0.182-0.928-0.366-1.393-0.55
			c-0.467-0.184-0.933-0.368-1.402-0.55c-0.048-0.023-0.071-0.056-0.071-0.097V7.456c0-0.041,0.016-0.071,0.049-0.089
			c0.031-0.018,0.066-0.02,0.101-0.008l4.15,1.794c0.041,0.023,0.061,0.056,0.061,0.097V10.182z"/>
		<path fill="#FFFFFF" d="M22.916,1.816c-0.209-0.93-1.038-1.628-2.029-1.628H7.459c-0.991,0-1.82,0.698-2.029,1.628H5.377v0.455
			v0.081V3.05v1.629v9.396c0,1.149,0.934,2.083,2.083,2.083h13.428c1.149,0,2.083-0.935,2.083-2.083V4.679V2.97V2.271V1.816
			L22.916,1.816L22.916,1.816z M20.48,1.782c0.371,0,0.672,0.301,0.672,0.671c0,0.371-0.301,0.672-0.672,0.672
			s-0.672-0.301-0.672-0.672C19.807,2.083,20.109,1.782,20.48,1.782 M18.606,1.782c0.371,0,0.672,0.301,0.672,0.671
			c0,0.371-0.3,0.672-0.672,0.672c-0.371,0-0.672-0.301-0.672-0.672C17.936,2.083,18.236,1.782,18.606,1.782 M16.776,1.782
			c0.371,0,0.671,0.301,0.671,0.671c0,0.371-0.301,0.672-0.671,0.672c-0.371,0-0.672-0.301-0.672-0.672
			C16.104,2.083,16.404,1.782,16.776,1.782 M21.572,14.075c0,0.378-0.309,0.686-0.686,0.686H7.458c-0.378,0-0.686-0.308-0.686-0.686
			V4.679h14.8L21.572,14.075L21.572,14.075z"/>
	</g>
	<g>
		<text transform="matrix(1 0 0 1 11.3103 27.2562)" fill="#FFFFFF" font-family="'NotoSans-Bold'" font-size="5">UI</text>
	</g>
</g>
</svg>
