<?xml version="1.0" encoding="utf-8"?>
<!-- Generator: Adobe Illustrator 17.0.0, SVG Export Plug-In . SVG Version: 6.00 Build 0)  -->
<!DOCTYPE svg PUBLIC "-//W3C//DTD SVG 1.1//EN" "http://www.w3.org/Graphics/SVG/1.1/DTD/svg11.dtd">
<svg version="1.1" id="Layer_1" xmlns="http://www.w3.org/2000/svg" xmlns:xlink="http://www.w3.org/1999/xlink" x="0px" y="0px"
	 width="42.52px" height="42.52px" viewBox="0 0 42.52 42.52" enable-background="new 0 0 42.52 42.52" xml:space="preserve">
<g>
	<polygon fill="#1DB4B2" points="0,0 0,6.42 0,36.101 0,42.52 42.52,42.52 42.52,0 	"/>
	<text transform="matrix(1 0 0 1 5.5207 34.3432)" fill="#FFFFFF" font-family="'NotoSans-Bold'" font-size="5">Architecture</text>
	<g>
		<path fill="#FFFFFF" d="M24.592,23.411H13.178V11.745h11.414V23.411z M14.142,22.447h9.487v-9.739h-9.487V22.447z"/>
		<path fill="#FFFFFF" d="M29.342,18.598H17.929V7.311h11.413V18.598z M18.892,17.635h9.486v-9.36h-9.486V17.635z"/>
		
			<rect x="15.416" y="6.643" transform="matrix(0.6832 0.7302 -0.7302 0.6832 12.2597 -8.4754)" fill="#FFFFFF" width="0.964" height="6.498"/>
		
			<rect x="15.531" y="17.145" transform="matrix(0.711 0.7032 -0.7032 0.711 19.0616 -5.3282)" fill="#FFFFFF" width="0.963" height="6.762"/>
		
			<rect x="25.989" y="6.764" transform="matrix(0.6823 0.7311 -0.7311 0.6823 15.73 -16.171)" fill="#FFFFFF" width="0.963" height="6.497"/>
		
			<rect x="26.115" y="17.256" transform="matrix(0.7148 0.6994 -0.6994 0.7148 22.0185 -12.7149)" fill="#FFFFFF" width="0.963" height="6.76"/>
	</g>
</g>
</svg>
